{
  "properties": [
    {
      "name": "movie.token.expiration",
      "type": "java.lang.String",
      "description": "Description for movie.token.expiration."
    },
    {
      "name": "movie.token.expiration",
      "type": "java.lang.String",
      "description": "Description for movie.token.expiration."
    }
  ]
}